{
	"info": {
		"_postman_id": "62217c46-2e1b-490e-b166-0175cde9df4a",
		"name": "Vinoramix",
		"schema": "https://schema.getpostman.com/json/collection/v2.1.0/collection.json"
	},
	"item": [
		{
			"name": "Register - User1",
			"request": {
				"method": "POST",
				"header": [],
				"body": {
					"mode": "raw",
					"raw": "{\r\n    \"username\": \"user2\",\r\n    \"password\": \"Password2$\",\r\n    \"email\": \"user2@test.com\"\r\n}",
					"options": {
						"raw": {
							"language": "json"
						}
					}
				},
				"url": {
					"raw": "http://localhost:32785/api/auth/register",
					"protocol": "http",
					"host": [
						"localhost"
					],
					"port": "32785",
					"path": [
						"api",
						"auth",
						"register"
					]
				}
			},
			"response": [
				{
					"name": "Register - User1",
					"originalRequest": {
						"method": "POST",
						"header": [],
						"body": {
							"mode": "raw",
							"raw": "{\r\n    \"username\": \"user2\",\r\n    \"password\": \"Password2$\",\r\n    \"email\": \"user2@test.com\"\r\n}",
							"options": {
								"raw": {
									"language": "json"
								}
							}
						},
						"url": {
							"raw": "http://localhost:32785/api/auth/register",
							"protocol": "http",
							"host": [
								"localhost"
							],
							"port": "32785",
							"path": [
								"api",
								"auth",
								"register"
							]
						}
					},
					"status": "OK",
					"code": 200,
					"_postman_previewlanguage": "json",
					"header": [
						{
							"key": "Date",
							"value": "Tue, 27 Oct 2020 22:37:18 GMT"
						},
						{
							"key": "Content-Type",
							"value": "application/json; charset=utf-8"
						},
						{
							"key": "Server",
							"value": "Kestrel"
						},
						{
							"key": "Transfer-Encoding",
							"value": "chunked"
						}
					],
					"cookie": [],
					"body": "{\n    \"status\": \"Success\",\n    \"message\": \"User created successfully!\"\n}"
				}
			]
		},
		{
			"name": "Login - User1",
			"request": {
				"method": "POST",
				"header": [],
				"body": {
					"mode": "raw",
					"raw": "{\r\n    \"username\": \"user1\",\r\n    \"password\": \"Password1$\"\r\n}",
					"options": {
						"raw": {
							"language": "json"
						}
					}
				},
				"url": {
					"raw": "http://localhost:32785/api/auth/login",
					"protocol": "http",
					"host": [
						"localhost"
					],
					"port": "32785",
					"path": [
						"api",
						"auth",
						"login"
					]
				}
			},
			"response": [
				{
					"name": "Login - User1",
					"originalRequest": {
						"method": "POST",
						"header": [],
						"body": {
							"mode": "raw",
							"raw": "{\r\n    \"username\": \"user1\",\r\n    \"password\": \"Password1$\"\r\n}",
							"options": {
								"raw": {
									"language": "json"
								}
							}
						},
						"url": {
							"raw": "http://localhost:32785/api/auth/login",
							"protocol": "http",
							"host": [
								"localhost"
							],
							"port": "32785",
							"path": [
								"api",
								"auth",
								"login"
							]
						}
					},
					"status": "OK",
					"code": 200,
					"_postman_previewlanguage": "json",
					"header": [
						{
							"key": "Date",
							"value": "Tue, 27 Oct 2020 22:23:19 GMT"
						},
						{
							"key": "Content-Type",
							"value": "application/json; charset=utf-8"
						},
						{
							"key": "Server",
							"value": "Kestrel"
						},
						{
							"key": "Transfer-Encoding",
							"value": "chunked"
						}
					],
					"cookie": [],
					"body": "{\n    \"token\": \"eyJhbGciOiJIUzI1NiIsInR5cCI6IkpXVCJ9.eyJodHRwOi8vc2NoZW1hcy54bWxzb2FwLm9yZy93cy8yMDA1LzA1L2lkZW50aXR5L2NsYWltcy9uYW1lIjoidXNlcjEiLCJqdGkiOiJlZDQ2ZDA0ZS0wYWJjLTQxZjktOWJjOC1jMTkyOTMxMWUwYjciLCJleHAiOjE2MDM4NDgxOTksImlzcyI6Imh0dHA6Ly9sb2NhbGhvc3Q6NDIwMCIsImF1ZCI6Imh0dHA6Ly9sb2NhbGhvc3Q6NDIwMCJ9.YMmaUg_SCb1nYE_wx-C6I5ZKT6M-gDCbwsuyEC2uJ4Q\",\n    \"expiration\": \"2020-10-28T01:23:19Z\"\n}"
				}
			]
		},
		{
			"name": "Get WeatherForecast",
			"request": {
				"auth": {
					"type": "bearer",
					"bearer": [
						{
							"key": "token",
							"value": "eyJhbGciOiJIUzI1NiIsInR5cCI6IkpXVCJ9.eyJodHRwOi8vc2NoZW1hcy54bWxzb2FwLm9yZy93cy8yMDA1LzA1L2lkZW50aXR5L2NsYWltcy9uYW1lIjoidXNlcjEiLCJqdGkiOiJiNTc3ZDViMS00MTI3LTQxNjUtYmQ0YS02NDkzYzYwZTBiMjAiLCJleHAiOjE2MDM4NDY5NjIsImlzcyI6Imh0dHA6Ly9sb2NhbGhvc3Q6NDIwMCIsImF1ZCI6Imh0dHA6Ly9sb2NhbGhvc3Q6NDIwMCJ9.W6dRfJa6_7QdYjWXFbzZfDVk6UUPmK7mTXyiB2SoIMU",
							"type": "string"
						}
					]
				},
				"method": "GET",
				"header": [],
				"url": {
					"raw": "http://localhost:32785/weatherforecast",
					"protocol": "http",
					"host": [
						"localhost"
					],
					"port": "32785",
					"path": [
						"weatherforecast"
					]
				}
			},
			"response": []
		}
	],
	"protocolProfileBehavior": {}
}